<?xml version="1.0" encoding="utf-8"?>
<!-- Generator: Adobe Illustrator 16.0.0, SVG Export Plug-In . SVG Version: 6.00 Build 0)  -->
<!DOCTYPE svg PUBLIC "-//W3C//DTD SVG 1.1//EN" "http://www.w3.org/Graphics/SVG/1.1/DTD/svg11.dtd">
<svg version="1.1" id="Layer_1" xmlns="http://www.w3.org/2000/svg" xmlns:xlink="http://www.w3.org/1999/xlink" x="0px" y="0px"
	 width="250px" height="30px" viewBox="0 0 250 30" enable-background="new 0 0 250 30" xml:space="preserve">
<g>
	<path fill="#FFFFFF" d="M13.104,21.447l-1.764-4.264H2.709l-1.827,4.264H0.378L6.826,6.579h0.588l6.195,14.868H13.104z
		 M7.099,6.873l-4.221,9.912h8.316L7.099,6.873z"/>
	<path fill="#FFFFFF" d="M41.874,21.447L37.38,13.95h-3.486v7.497h-0.462V6.579h4.116c0.546,0,1.099,0.049,1.659,0.147
		c0.56,0.098,1.061,0.284,1.501,0.557s0.801,0.648,1.082,1.124c0.28,0.476,0.42,1.092,0.42,1.848c0,0.7-0.133,1.281-0.399,1.743
		c-0.266,0.462-0.609,0.837-1.029,1.124c-0.42,0.287-0.886,0.494-1.396,0.62c-0.511,0.126-1.012,0.189-1.501,0.189l4.515,7.518
		H41.874z M41.748,10.254c0-0.644-0.126-1.179-0.378-1.606s-0.585-0.763-0.998-1.008c-0.413-0.245-0.889-0.417-1.428-0.514
		c-0.539-0.098-1.088-0.147-1.648-0.147h-3.402v6.573h3.633c1.372,0,2.418-0.287,3.14-0.861
		C41.387,12.116,41.748,11.304,41.748,10.254z"/>
	<path fill="#FFFFFF" d="M72.922,21.311c-0.959,0.371-1.936,0.557-2.93,0.557c-1.12,0-2.142-0.196-3.066-0.588
		c-0.924-0.392-1.722-0.935-2.394-1.627c-0.672-0.693-1.193-1.523-1.564-2.489s-0.556-2.016-0.556-3.15
		c0-1.134,0.185-2.184,0.556-3.15s0.893-1.795,1.564-2.488c0.672-0.693,1.474-1.236,2.405-1.628
		c0.931-0.392,1.949-0.588,3.055-0.588c0.924,0,1.824,0.158,2.699,0.473s1.62,0.794,2.236,1.438l-0.294,0.336
		c-0.294-0.308-0.626-0.578-0.998-0.809s-0.763-0.423-1.176-0.577c-0.413-0.154-0.83-0.266-1.25-0.336
		c-0.42-0.07-0.826-0.105-1.218-0.105c-1.064,0-2.034,0.193-2.908,0.578c-0.875,0.385-1.625,0.914-2.247,1.585
		c-0.623,0.672-1.106,1.459-1.449,2.363c-0.343,0.903-0.514,1.873-0.514,2.908c0,1.036,0.168,2.005,0.504,2.909
		c0.336,0.902,0.815,1.69,1.438,2.362c0.623,0.672,1.372,1.201,2.247,1.586c0.875,0.385,1.851,0.577,2.929,0.577
		c0.924,0,1.838-0.179,2.741-0.535c0.903-0.357,1.648-0.893,2.236-1.607l0.336,0.315C74.676,20.377,73.881,20.94,72.922,21.311z"/>
	<path fill="#FFFFFF" d="M106.008,21.447v-7.476h-9.996v7.476H95.55V6.579h0.462v6.972h9.996V6.579h0.462v14.868H106.008z"/>
	<path fill="#FFFFFF" d="M128.142,21.447V6.579h0.463v14.868H128.142z"/>
	<path fill="#FFFFFF" d="M153.951,6.999v14.448h-0.462V6.999h-5.062v-0.42h10.584v0.42H153.951z"/>
	<path fill="#FFFFFF" d="M178.835,21.447V6.579h8.674v0.42h-8.211v6.531h7.728v0.42h-7.728v7.077h8.547v0.42H178.835z"/>
	<path fill="#FFFFFF" d="M218.242,21.311c-0.959,0.371-1.936,0.557-2.93,0.557c-1.12,0-2.142-0.196-3.065-0.588
		c-0.925-0.392-1.723-0.935-2.395-1.627c-0.672-0.693-1.193-1.523-1.564-2.489s-0.557-2.016-0.557-3.15
		c0-1.134,0.186-2.184,0.557-3.15s0.893-1.795,1.564-2.488c0.672-0.693,1.474-1.236,2.404-1.628c0.932-0.392,1.95-0.588,3.056-0.588
		c0.924,0,1.823,0.158,2.698,0.473s1.621,0.794,2.237,1.438l-0.294,0.336c-0.294-0.308-0.627-0.578-0.998-0.809
		s-0.763-0.423-1.176-0.577c-0.413-0.154-0.829-0.266-1.25-0.336c-0.42-0.07-0.826-0.105-1.218-0.105
		c-1.063,0-2.033,0.193-2.908,0.578c-0.875,0.385-1.624,0.914-2.247,1.585s-1.106,1.459-1.449,2.363
		c-0.343,0.903-0.515,1.873-0.515,2.908c0,1.036,0.168,2.005,0.504,2.909c0.337,0.902,0.815,1.69,1.438,2.362
		s1.372,1.201,2.247,1.586s1.852,0.577,2.93,0.577c0.924,0,1.838-0.179,2.741-0.535c0.902-0.357,1.648-0.893,2.236-1.607
		l0.336,0.315C219.996,20.377,219.201,20.94,218.242,21.311z"/>
	<path fill="#FFFFFF" d="M244.419,6.999v14.448h-0.462V6.999h-5.062v-0.42h10.584v0.42H244.419z"/>
</g>
</svg>
